0	0.00	0.00
1	12.00	0.00
2	24.00	0.00
3	36.00	0.00
4	48.00	0.00
5	60.00	0.00
6	72.00	0.00
7	84.00	0.00
8	96.00	0.00
9	108.00	0.00
10	120.00	0.00
11	132.00	0.00
12	144.00	0.00
13	156.00	0.00
14	168.00	0.00
15	180.00	0.00
16	0.00	12.00
17	12.00	12.00
18	24.00	12.00
19	36.00	12.00
20	48.00	12.00
21	60.00	12.00
22	72.00	12.00
23	84.00	12.00
24	96.00	12.00
25	108.00	12.00
26	120.00	12.00
27	132.00	12.00
28	144.00	12.00
29	156.00	12.00
30	168.00	12.00
31	180.00	12.00
32	0.00	24.00
33	12.00	24.00
34	24.00	24.00
35	36.00	24.00
36	48.00	24.00
37	60.00	24.00
38	72.00	24.00
39	84.00	24.00
40	96.00	24.00
41	108.00	24.00
42	120.00	24.00
43	132.00	24.00
44	144.00	24.00
45	156.00	24.00
46	168.00	24.00
47	180.00	24.00
48	0.00	36.00
49	12.00	36.00
50	24.00	36.00
51	36.00	36.00
52	48.00	36.00
53	60.00	36.00
54	72.00	36.00
55	84.00	36.00
56	96.00	36.00
57	108.00	36.00
58	120.00	36.00
59	132.00	36.00
60	144.00	36.00
61	156.00	36.00
62	168.00	36.00
63	180.00	36.00
64	0.00	48.00
65	12.00	48.00
66	24.00	48.00
67	36.00	48.00
68	48.00	48.00
69	60.00	48.00
70	72.00	48.00
71	84.00	48.00
72	96.00	48.00
73	108.00	48.00
74	120.00	48.00
75	132.00	48.00
76	144.00	48.00
77	156.00	48.00
78	168.00	48.00
79	180.00	48.00
80	0.00	60.00
81	12.00	60.00
82	24.00	60.00
83	36.00	60.00
84	48.00	60.00
85	60.00	60.00
86	72.00	60.00
87	84.00	60.00
88	96.00	60.00
89	108.00	60.00
90	120.00	60.00
91	132.00	60.00
92	144.00	60.00
93	156.00	60.00
94	168.00	60.00
95	180.00	60.00
96	0.00	72.00
97	12.00	72.00
98	24.00	72.00
99	36.00	72.00
100	48.00	72.00
101	60.00	72.00
102	72.00	72.00
103	84.00	72.00
104	96.00	72.00
105	108.00	72.00
106	120.00	72.00
107	132.00	72.00
108	144.00	72.00
109	156.00	72.00
110	168.00	72.00
111	180.00	72.00
112	0.00	84.00
113	12.00	84.00
114	24.00	84.00
115	36.00	84.00
116	48.00	84.00
117	60.00	84.00
118	72.00	84.00
119	84.00	84.00
120	96.00	84.00
121	108.00	84.00
122	120.00	84.00
123	132.00	84.00
124	144.00	84.00
125	156.00	84.00
126	168.00	84.00
127	180.00	84.00
128	0.00	96.00
129	12.00	96.00
130	24.00	96.00
131	36.00	96.00
132	48.00	96.00
133	60.00	96.00
134	72.00	96.00
135	84.00	96.00
136	96.00	96.00
137	108.00	96.00
138	120.00	96.00
139	132.00	96.00
140	144.00	96.00
141	156.00	96.00
142	168.00	96.00
143	180.00	96.00
144	0.00	108.00
145	12.00	108.00
146	24.00	108.00
147	36.00	108.00
148	48.00	108.00
149	60.00	108.00
150	72.00	108.00
151	84.00	108.00
152	96.00	108.00
153	108.00	108.00
154	120.00	108.00
155	132.00	108.00
156	144.00	108.00
157	156.00	108.00
158	168.00	108.00
159	180.00	108.00
160	0.00	120.00
161	12.00	120.00
162	24.00	120.00
163	36.00	120.00
164	48.00	120.00
165	60.00	120.00
166	72.00	120.00
167	84.00	120.00
168	96.00	120.00
169	108.00	120.00
170	120.00	120.00
171	132.00	120.00
172	144.00	120.00
173	156.00	120.00
174	168.00	120.00
175	180.00	120.00
176	0.00	132.00
177	12.00	132.00
178	24.00	132.00
179	36.00	132.00
180	48.00	132.00
181	60.00	132.00
182	72.00	132.00
183	84.00	132.00
184	96.00	132.00
185	108.00	132.00
186	120.00	132.00
187	132.00	132.00
188	144.00	132.00
189	156.00	132.00
190	168.00	132.00
191	180.00	132.00
192	0.00	144.00
193	12.00	144.00
194	24.00	144.00
195	36.00	144.00
196	48.00	144.00
197	60.00	144.00
198	72.00	144.00
199	84.00	144.00
200	96.00	144.00
201	108.00	144.00
202	120.00	144.00
203	132.00	144.00
204	144.00	144.00
205	156.00	144.00
206	168.00	144.00
207	180.00	144.00
208	0.00	156.00
209	12.00	156.00
210	24.00	156.00
211	36.00	156.00
212	48.00	156.00
213	60.00	156.00
214	72.00	156.00
215	84.00	156.00
216	96.00	156.00
217	108.00	156.00
218	120.00	156.00
219	132.00	156.00
220	144.00	156.00
221	156.00	156.00
222	168.00	156.00
223	180.00	156.00
224	0.00	168.00
225	12.00	168.00
226	24.00	168.00
227	36.00	168.00
228	48.00	168.00
229	60.00	168.00
230	72.00	168.00
231	84.00	168.00
232	96.00	168.00
233	108.00	168.00
234	120.00	168.00
235	132.00	168.00
236	144.00	168.00
237	156.00	168.00
238	168.00	168.00
239	180.00	168.00
240	0.00	180.00
241	12.00	180.00
242	24.00	180.00
243	36.00	180.00
244	48.00	180.00
245	60.00	180.00
246	72.00	180.00
247	84.00	180.00
248	96.00	180.00
249	108.00	180.00
250	120.00	180.00
251	132.00	180.00
252	144.00	180.00
253	156.00	180.00
254	168.00	180.00
255	180.00	180.00
