0	0.00	0.00
1	16.00	0.00
2	32.00	0.00
3	48.00	0.00
4	64.00	0.00
5	80.00	0.00
6	96.00	0.00
7	112.00	0.00
8	128.00	0.00
9	144.00	0.00
10	160.00	0.00
11	176.00	0.00
12	192.00	0.00
13	208.00	0.00
14	224.00	0.00
15	240.00	0.00
16	0.00	16.00
17	16.00	16.00
18	32.00	16.00
19	48.00	16.00
20	64.00	16.00
21	80.00	16.00
22	96.00	16.00
23	112.00	16.00
24	128.00	16.00
25	144.00	16.00
26	160.00	16.00
27	176.00	16.00
28	192.00	16.00
29	208.00	16.00
30	224.00	16.00
31	240.00	16.00
32	0.00	32.00
33	16.00	32.00
34	32.00	32.00
35	48.00	32.00
36	64.00	32.00
37	80.00	32.00
38	96.00	32.00
39	112.00	32.00
40	128.00	32.00
41	144.00	32.00
42	160.00	32.00
43	176.00	32.00
44	192.00	32.00
45	208.00	32.00
46	224.00	32.00
47	240.00	32.00
48	0.00	48.00
49	16.00	48.00
50	32.00	48.00
51	48.00	48.00
52	64.00	48.00
53	80.00	48.00
54	96.00	48.00
55	112.00	48.00
56	128.00	48.00
57	144.00	48.00
58	160.00	48.00
59	176.00	48.00
60	192.00	48.00
61	208.00	48.00
62	224.00	48.00
63	240.00	48.00
64	0.00	64.00
65	16.00	64.00
66	32.00	64.00
67	48.00	64.00
68	64.00	64.00
69	80.00	64.00
70	96.00	64.00
71	112.00	64.00
72	128.00	64.00
73	144.00	64.00
74	160.00	64.00
75	176.00	64.00
76	192.00	64.00
77	208.00	64.00
78	224.00	64.00
79	240.00	64.00
80	0.00	80.00
81	16.00	80.00
82	32.00	80.00
83	48.00	80.00
84	64.00	80.00
85	80.00	80.00
86	96.00	80.00
87	112.00	80.00
88	128.00	80.00
89	144.00	80.00
90	160.00	80.00
91	176.00	80.00
92	192.00	80.00
93	208.00	80.00
94	224.00	80.00
95	240.00	80.00
96	0.00	96.00
97	16.00	96.00
98	32.00	96.00
99	48.00	96.00
100	64.00	96.00
101	80.00	96.00
102	96.00	96.00
103	112.00	96.00
104	128.00	96.00
105	144.00	96.00
106	160.00	96.00
107	176.00	96.00
108	192.00	96.00
109	208.00	96.00
110	224.00	96.00
111	240.00	96.00
112	0.00	112.00
113	16.00	112.00
114	32.00	112.00
115	48.00	112.00
116	64.00	112.00
117	80.00	112.00
118	96.00	112.00
119	112.00	112.00
120	128.00	112.00
121	144.00	112.00
122	160.00	112.00
123	176.00	112.00
124	192.00	112.00
125	208.00	112.00
126	224.00	112.00
127	240.00	112.00
128	0.00	128.00
129	16.00	128.00
130	32.00	128.00
131	48.00	128.00
132	64.00	128.00
133	80.00	128.00
134	96.00	128.00
135	112.00	128.00
136	128.00	128.00
137	144.00	128.00
138	160.00	128.00
139	176.00	128.00
140	192.00	128.00
141	208.00	128.00
142	224.00	128.00
143	240.00	128.00
144	0.00	144.00
145	16.00	144.00
146	32.00	144.00
147	48.00	144.00
148	64.00	144.00
149	80.00	144.00
150	96.00	144.00
151	112.00	144.00
152	128.00	144.00
153	144.00	144.00
154	160.00	144.00
155	176.00	144.00
156	192.00	144.00
157	208.00	144.00
158	224.00	144.00
159	240.00	144.00
160	0.00	160.00
161	16.00	160.00
162	32.00	160.00
163	48.00	160.00
164	64.00	160.00
165	80.00	160.00
166	96.00	160.00
167	112.00	160.00
168	128.00	160.00
169	144.00	160.00
170	160.00	160.00
171	176.00	160.00
172	192.00	160.00
173	208.00	160.00
174	224.00	160.00
175	240.00	160.00
176	0.00	176.00
177	16.00	176.00
178	32.00	176.00
179	48.00	176.00
180	64.00	176.00
181	80.00	176.00
182	96.00	176.00
183	112.00	176.00
184	128.00	176.00
185	144.00	176.00
186	160.00	176.00
187	176.00	176.00
188	192.00	176.00
189	208.00	176.00
190	224.00	176.00
191	240.00	176.00
192	0.00	192.00
193	16.00	192.00
194	32.00	192.00
195	48.00	192.00
196	64.00	192.00
197	80.00	192.00
198	96.00	192.00
199	112.00	192.00
200	128.00	192.00
201	144.00	192.00
202	160.00	192.00
203	176.00	192.00
204	192.00	192.00
205	208.00	192.00
206	224.00	192.00
207	240.00	192.00
208	0.00	208.00
209	16.00	208.00
210	32.00	208.00
211	48.00	208.00
212	64.00	208.00
213	80.00	208.00
214	96.00	208.00
215	112.00	208.00
216	128.00	208.00
217	144.00	208.00
218	160.00	208.00
219	176.00	208.00
220	192.00	208.00
221	208.00	208.00
222	224.00	208.00
223	240.00	208.00
224	0.00	224.00
225	16.00	224.00
226	32.00	224.00
227	48.00	224.00
228	64.00	224.00
229	80.00	224.00
230	96.00	224.00
231	112.00	224.00
232	128.00	224.00
233	144.00	224.00
234	160.00	224.00
235	176.00	224.00
236	192.00	224.00
237	208.00	224.00
238	224.00	224.00
239	240.00	224.00
240	0.00	240.00
241	16.00	240.00
242	32.00	240.00
243	48.00	240.00
244	64.00	240.00
245	80.00	240.00
246	96.00	240.00
247	112.00	240.00
248	128.00	240.00
249	144.00	240.00
250	160.00	240.00
251	176.00	240.00
252	192.00	240.00
253	208.00	240.00
254	224.00	240.00
255	240.00	240.00
