0	0.00	0.00
1	8.00	0.00
2	16.00	0.00
3	24.00	0.00
4	32.00	0.00
5	40.00	0.00
6	48.00	0.00
7	56.00	0.00
8	64.00	0.00
9	72.00	0.00
10	80.00	0.00
11	88.00	0.00
12	96.00	0.00
13	104.00	0.00
14	112.00	0.00
15	120.00	0.00
16	0.00	8.00
17	8.00	8.00
18	16.00	8.00
19	24.00	8.00
20	32.00	8.00
21	40.00	8.00
22	48.00	8.00
23	56.00	8.00
24	64.00	8.00
25	72.00	8.00
26	80.00	8.00
27	88.00	8.00
28	96.00	8.00
29	104.00	8.00
30	112.00	8.00
31	120.00	8.00
32	0.00	16.00
33	8.00	16.00
34	16.00	16.00
35	24.00	16.00
36	32.00	16.00
37	40.00	16.00
38	48.00	16.00
39	56.00	16.00
40	64.00	16.00
41	72.00	16.00
42	80.00	16.00
43	88.00	16.00
44	96.00	16.00
45	104.00	16.00
46	112.00	16.00
47	120.00	16.00
48	0.00	24.00
49	8.00	24.00
50	16.00	24.00
51	24.00	24.00
52	32.00	24.00
53	40.00	24.00
54	48.00	24.00
55	56.00	24.00
56	64.00	24.00
57	72.00	24.00
58	80.00	24.00
59	88.00	24.00
60	96.00	24.00
61	104.00	24.00
62	112.00	24.00
63	120.00	24.00
64	0.00	32.00
65	8.00	32.00
66	16.00	32.00
67	24.00	32.00
68	32.00	32.00
69	40.00	32.00
70	48.00	32.00
71	56.00	32.00
72	64.00	32.00
73	72.00	32.00
74	80.00	32.00
75	88.00	32.00
76	96.00	32.00
77	104.00	32.00
78	112.00	32.00
79	120.00	32.00
80	0.00	40.00
81	8.00	40.00
82	16.00	40.00
83	24.00	40.00
84	32.00	40.00
85	40.00	40.00
86	48.00	40.00
87	56.00	40.00
88	64.00	40.00
89	72.00	40.00
90	80.00	40.00
91	88.00	40.00
92	96.00	40.00
93	104.00	40.00
94	112.00	40.00
95	120.00	40.00
96	0.00	48.00
97	8.00	48.00
98	16.00	48.00
99	24.00	48.00
100	32.00	48.00
101	40.00	48.00
102	48.00	48.00
103	56.00	48.00
104	64.00	48.00
105	72.00	48.00
106	80.00	48.00
107	88.00	48.00
108	96.00	48.00
109	104.00	48.00
110	112.00	48.00
111	120.00	48.00
112	0.00	56.00
113	8.00	56.00
114	16.00	56.00
115	24.00	56.00
116	32.00	56.00
117	40.00	56.00
118	48.00	56.00
119	56.00	56.00
120	64.00	56.00
121	72.00	56.00
122	80.00	56.00
123	88.00	56.00
124	96.00	56.00
125	104.00	56.00
126	112.00	56.00
127	120.00	56.00
128	0.00	64.00
129	8.00	64.00
130	16.00	64.00
131	24.00	64.00
132	32.00	64.00
133	40.00	64.00
134	48.00	64.00
135	56.00	64.00
136	64.00	64.00
137	72.00	64.00
138	80.00	64.00
139	88.00	64.00
140	96.00	64.00
141	104.00	64.00
142	112.00	64.00
143	120.00	64.00
144	0.00	72.00
145	8.00	72.00
146	16.00	72.00
147	24.00	72.00
148	32.00	72.00
149	40.00	72.00
150	48.00	72.00
151	56.00	72.00
152	64.00	72.00
153	72.00	72.00
154	80.00	72.00
155	88.00	72.00
156	96.00	72.00
157	104.00	72.00
158	112.00	72.00
159	120.00	72.00
160	0.00	80.00
161	8.00	80.00
162	16.00	80.00
163	24.00	80.00
164	32.00	80.00
165	40.00	80.00
166	48.00	80.00
167	56.00	80.00
168	64.00	80.00
169	72.00	80.00
170	80.00	80.00
171	88.00	80.00
172	96.00	80.00
173	104.00	80.00
174	112.00	80.00
175	120.00	80.00
176	0.00	88.00
177	8.00	88.00
178	16.00	88.00
179	24.00	88.00
180	32.00	88.00
181	40.00	88.00
182	48.00	88.00
183	56.00	88.00
184	64.00	88.00
185	72.00	88.00
186	80.00	88.00
187	88.00	88.00
188	96.00	88.00
189	104.00	88.00
190	112.00	88.00
191	120.00	88.00
192	0.00	96.00
193	8.00	96.00
194	16.00	96.00
195	24.00	96.00
196	32.00	96.00
197	40.00	96.00
198	48.00	96.00
199	56.00	96.00
200	64.00	96.00
201	72.00	96.00
202	80.00	96.00
203	88.00	96.00
204	96.00	96.00
205	104.00	96.00
206	112.00	96.00
207	120.00	96.00
208	0.00	104.00
209	8.00	104.00
210	16.00	104.00
211	24.00	104.00
212	32.00	104.00
213	40.00	104.00
214	48.00	104.00
215	56.00	104.00
216	64.00	104.00
217	72.00	104.00
218	80.00	104.00
219	88.00	104.00
220	96.00	104.00
221	104.00	104.00
222	112.00	104.00
223	120.00	104.00
224	0.00	112.00
225	8.00	112.00
226	16.00	112.00
227	24.00	112.00
228	32.00	112.00
229	40.00	112.00
230	48.00	112.00
231	56.00	112.00
232	64.00	112.00
233	72.00	112.00
234	80.00	112.00
235	88.00	112.00
236	96.00	112.00
237	104.00	112.00
238	112.00	112.00
239	120.00	112.00
240	0.00	120.00
241	8.00	120.00
242	16.00	120.00
243	24.00	120.00
244	32.00	120.00
245	40.00	120.00
246	48.00	120.00
247	56.00	120.00
248	64.00	120.00
249	72.00	120.00
250	80.00	120.00
251	88.00	120.00
252	96.00	120.00
253	104.00	120.00
254	112.00	120.00
255	120.00	120.00
