gain	0	1	-77.54
gain	1	0	-76.61
gain	0	2	-91.72
gain	2	0	-92.38
gain	0	3	-77.60
gain	3	0	-75.41
gain	1	2	-83.97
gain	2	1	-85.56
gain	1	3	-82.95
gain	3	1	-81.69
gain	2	3	-83.76
gain	3	2	-80.90
noise	0	-104.26	4.00
noise	1	-107.03	4.00
noise	2	-106.29	4.00
noise	3	-106.01	4.00
